{
    "ansible_facts": {
        "discovered_interpreter_python": "/usr/bin/python3"
    },
    "changed": false,
    "failed": false,
    "redfish_facts": {
        "thermals": {
            "entries": [
                {
                    "LowerThresholdCritical": -7,
                    "LowerThresholdFatal": -7,
                    "LowerThresholdNonCritical": 3,
                    "MaxReadingRangeTemp": 47,
                    "MinReadingRangeTemp": -7,
                    "Name": "System Board Inlet Temp",
                    "PhysicalContext": "SystemBoard",
                    "ReadingCelsius": 24,
                    "RelatedItem": [
                        {
                            "@odata.id": "/redfish/v1/Chassis/System.Embedded.1"
                        }
                    ],
                    "SensorNumber": 4,
                    "Status": {
                        "Health": "OK",
                        "State": "Enabled"
                    },
                    "UpperThresholdCritical": 47,
                    "UpperThresholdFatal": 47,
                    "UpperThresholdNonCritical": 42
                },
                {
                    "LowerThresholdCritical": 0,
                    "LowerThresholdFatal": 0,
                    "LowerThresholdNonCritical": 0,
                    "MaxReadingRangeTemp": 75,
                    "MinReadingRangeTemp": 0,
                    "Name": "System Board Exhaust Temp",
                    "PhysicalContext": "SystemBoard",
                    "ReadingCelsius": 38,
                    "RelatedItem": [
                        {
                            "@odata.id": "/redfish/v1/Chassis/System.Embedded.1"
                        }
                    ],
                    "SensorNumber": 1,
                    "Status": {
                        "Health": "OK",
                        "State": "Enabled"
                    },
                    "UpperThresholdCritical": 75,
                    "UpperThresholdFatal": 75,
                    "UpperThresholdNonCritical": 70
                },
                {
                    "LowerThresholdCritical": 3,
                    "LowerThresholdFatal": 3,
                    "LowerThresholdNonCritical": 8,
                    "MaxReadingRangeTemp": 88,
                    "MinReadingRangeTemp": 3,
                    "Name": "CPU1 Temp",
                    "PhysicalContext": "CPU",
                    "ReadingCelsius": 64,
                    "RelatedItem": [
                        {
                            "@odata.id": "/redfish/v1/Systems/System.Embedded.1/Processors/CPU.Socket.1"
                        }
                    ],
                    "SensorNumber": 14,
                    "Status": {
                        "Health": "OK",
                        "State": "Enabled"
                    },
                    "UpperThresholdCritical": 88,
                    "UpperThresholdFatal": 88,
                    "UpperThresholdNonCritical": 83
                },
                {
                    "LowerThresholdCritical": 3,
                    "LowerThresholdFatal": 3,
                    "LowerThresholdNonCritical": 8,
                    "MaxReadingRangeTemp": 88,
                    "MinReadingRangeTemp": 3,
                    "Name": "CPU2 Temp",
                    "PhysicalContext": "CPU",
                    "ReadingCelsius": 66,
                    "RelatedItem": [
                        {
                            "@odata.id": "/redfish/v1/Systems/System.Embedded.1/Processors/CPU.Socket.2"
                        }
                    ],
                    "SensorNumber": 15,
                    "Status": {
                        "Health": "OK",
                        "State": "Enabled"
                    },
                    "UpperThresholdCritical": 88,
                    "UpperThresholdFatal": 88,
                    "UpperThresholdNonCritical": 83
                }
            ],
            "ret": true
        }
    }
}